{
  "count": 14,
  "next": "http://127.0.0.1:8000/app/v1/link/?page=2&page_size=10&reverse=true&sort=date",
  "previous": null,
  "results": [
    {
      "id": "2eea19ac-c696-4298-8023-c8335525e6a2",
      "URL": "http://localhost:5601/",
      "date": "2016-01-08T06:55:17.094143Z",
      "title": "Modern, minimalist, knowledge management app.",
      "author_id": "lujin",
      "abstract": "",
      "likes": 0,
      "topic": null,
      "tags": [
        "baidu"
      ],
      "image": "",
      "num_comments": 0,
      "liked": false,
      "disliked": false
    },
    {
      "id": "ef621a45-c708-46f8-9588-e9f449f711de",
      "URL": "http://localhost:5601/submit",
      "date": "2016-01-08T06:18:58.308763Z",
      "title": "Modern, minimalist, knowledge management app.",
      "author_id": "lujin",
      "abstract": "这里有中华",
      "likes": 0,
      "topic": null,
      "tags": [
        "test"
      ],
      "image": "",
      "num_comments": 0,
      "liked": false,
      "disliked": false
    },
    {
      "id": "ff4dfe00-fb57-48d5-8dc7-5c34e8bf42d5",
      "URL": "http://localhost:5601/submit",
      "date": "2016-01-08T06:15:40.832419Z",
      "title": "中华名族",
      "author_id": "lujin",
      "abstract": "",
      "likes": 0,
      "topic": null,
      "tags": [
        "dddd  aaa"
      ],
      "image": "",
      "num_comments": 0,
      "liked": false,
      "disliked": false
    },
    {
      "id": "2a76783b-1368-424c-ba2f-7339ef8769b9",
      "URL": "https://imququ.com/post/switch-to-https.html",
      "date": "2016-01-08T06:14:23.592489Z",
      "title": "中华人民共和国",
      "author_id": "lujin",
      "abstract": "",
      "likes": 0,
      "topic": null,
      "tags": [
        "bing"
      ],
      "image": "",
      "num_comments": 0,
      "liked": false,
      "disliked": false
    },
    {
      "id": "0d5c15c6-9c97-482e-bc4f-ceda6033fe81",
      "URL": "https://www.qianduan.net/qie-huan-dao-lets-encryptmian-fei-zheng-shu/",
      "date": "2016-01-08T06:10:32.920892Z",
      "title": "切 换 到Lets Encrypt免费证书",
      "author_id": "lujin",
      "abstract": "",
      "likes": 0,
      "topic": null,
      "tags": [
        "bing"
      ],
      "image": "https://dn-qianduanimage.qbox.me/give_me_five.jpg",
      "num_comments": 0,
      "liked": false,
      "disliked": false
    },
    {
      "id": "662ba4ed-d5b5-412b-808f-fd1a08290222",
      "URL": "https://www.qianduan.net/qie-huan-dao-lets-encryptmian-fei-zheng-shu/",
      "date": "2016-01-08T06:10:10.938484Z",
      "title": "切换到Lets Encrypt免费证书",
      "author_id": "lujin",
      "abstract": "",
      "likes": 0,
      "topic": null,
      "tags": [
        "baidu",
        "bing"
      ],
      "image": "https://dn-qianduanimage.qbox.me/give_me_five.jpg",
      "num_comments": 0,
      "liked": false,
      "disliked": false
    },
    {
      "id": "95061352-9001-4c96-bb90-136ba01144ca",
      "URL": "http://open.chrome.360.cn/extension_dev/manifest.html",
      "date": "2016-01-08T03:34:43.289945Z",
      "title": "xc c c c",
      "author_id": "lujin",
      "abstract": "",
      "likes": 0,
      "topic": null,
      "tags": [
        "bing",
        "http://localhost:5601/submit",
        "reddit"
      ],
      "image": "",
      "num_comments": 0,
      "liked": false,
      "disliked": false
    },
    {
      "id": "b9a5d4a8-324e-440e-8c0d-b85d8c79c35e",
      "URL": "http://localhost:5601/submit",
      "date": "2016-01-08T03:22:48.287753Z",
      "title": "xxxxx",
      "author_id": "lujin",
      "abstract": "",
      "likes": 1,
      "topic": null,
      "tags": [
        "http://localhost:5601/submit"
      ],
      "image": "",
      "num_comments": 0,
      "liked": false,
      "disliked": false
    },
    {
      "id": "729f9666-ed6c-436e-9370-ea15eddcf66f",
      "URL": "https://www.elastic.co/guide/en/elasticsearch/reference/current/docs-index_.html",
      "date": "2016-01-07T03:33:10.143434Z",
      "title": "Index API",
      "author_id": "lujin",
      "abstract": "",
      "likes": 0,
      "topic": null,
      "tags": [
        "http://localhost:5601/submit",
        "reddit"
      ],
      "image": "https://www.elastic.co/static/img/elastic-logo-200.png",
      "num_comments": 0,
      "liked": false,
      "disliked": false
    },
    {
      "id": "88c84992-bc12-453c-8c7c-5633fdb0d056",
      "URL": "http://open.chrome.360.cn/extension_dev/manifest.html",
      "date": "2016-01-07T03:29:17.742030Z",
      "title": "清单文件--扩展开发文档",
      "author_id": "lujin",
      "abstract": "360浏览器极速版(360chrome)无缝融合双核引擎，最好用的极速双核浏览器！360浏览器极速版采用了最快速的webkit内核及兼容性最好的IE内核。360浏览器极速版简洁人性化的设计，更好用！360浏览器极速版囊括超级拖放、鼠标手势等实用功能，大量扩展程序及皮肤任您使用！",
      "likes": 1,
      "topic": null,
      "tags": [
        "dddd  aaa"
      ],
      "image": "",
      "num_comments": 0,
      "liked": false,
      "disliked": false
    }
  ]
}